{
    "/js/vendor.js": "/js/vendor.js?id=352c74db82383839df1a",
    "/js/app.js": "/js/app.js?id=f6c6b8330cc95a9241f5",
<<<<<<< HEAD
    "/css/app.css": "/css/app.css?id=75dfa870b2b44927cbe5",
    "/js/login.js": "/js/login.js?id=7d7609dcd85cf92b44b5",
=======
    "/css/app.css": "/css/app.css?id=cc98c5bb347adf067080",
    "/js/login.js": "/js/login.js?id=d1a66d6944c13bc20666",
>>>>>>> master
    "/js/manifest.js": "/js/manifest.js?id=5af0071f1ceba8be85c6"
}